{
	"function": {
		"reasstd0385d56d0385d56CustomMessage": {
			"build": true,
			"providerPlugin": "awscloudformation",
			"service": "Lambda"
		}
	},
	"auth": {
		"userPoolGroups": {
			"service": "Cognito-UserPool-Groups",
			"providerPlugin": "awscloudformation",
			"dependsOn": [
				{
					"category": "auth",
					"resourceName": "reasstd0385d56d0385d56",
					"attributes": [
						"UserPoolId",
						"AppClientIDWeb",
						"AppClientID",
						"IdentityPoolId"
					]
				}
			]
		},
		"reasstd0385d56d0385d56": {
			"service": "Cognito",
			"providerPlugin": "awscloudformation",
			"dependsOn": [
				{
					"category": "function",
					"resourceName": "reasstd0385d56d0385d56CustomMessage",
					"triggerProvider": "Cognito",
					"attributes": [
						"Arn",
						"Name"
					]
				}
			]
		}
	},
	"api": {
		"reasstapi": {
			"service": "AppSync",
			"providerPlugin": "awscloudformation",
			"output": {
				"authConfig": {
					"additionalAuthenticationProviders": [
						{
							"authenticationType": "AWS_IAM"
						}
					],
					"defaultAuthentication": {
						"authenticationType": "AMAZON_COGNITO_USER_POOLS",
						"userPoolConfig": {
							"userPoolId": "authreasstd0385d56d0385d56"
						}
					}
				}
			}
		}
	}
}