{
    "prod": {
        "awscloudformation": {
            "AuthRoleName": "amplify-reasst-prod-100558-authRole",
            "UnauthRoleArn": "arn:aws:iam::206568594760:role/amplify-reasst-prod-100558-unauthRole",
            "AuthRoleArn": "arn:aws:iam::206568594760:role/amplify-reasst-prod-100558-authRole",
            "Region": "us-east-1",
            "DeploymentBucketName": "amplify-reasst-prod-100558-deployment",
            "UnauthRoleName": "amplify-reasst-prod-100558-unauthRole",
            "StackName": "amplify-reasst-prod-100558",
            "StackId": "arn:aws:cloudformation:us-east-1:206568594760:stack/amplify-reasst-prod-100558/db44adc0-cc2c-11ea-afb3-0ac7f938abd6",
            "AmplifyAppId": "d2zclcmrqt5a4t"
        }
    },
    "test": {
        "awscloudformation": {
            "AuthRoleName": "amplify-reasst-test-100702-authRole",
            "UnauthRoleArn": "arn:aws:iam::206568594760:role/amplify-reasst-test-100702-unauthRole",
            "AuthRoleArn": "arn:aws:iam::206568594760:role/amplify-reasst-test-100702-authRole",
            "Region": "us-east-1",
            "DeploymentBucketName": "amplify-reasst-test-100702-deployment",
            "UnauthRoleName": "amplify-reasst-test-100702-unauthRole",
            "StackName": "amplify-reasst-test-100702",
            "StackId": "arn:aws:cloudformation:us-east-1:206568594760:stack/amplify-reasst-test-100702/001fa550-cc2d-11ea-a3ac-12dc156c2e93",
            "AmplifyAppId": "d2zclcmrqt5a4t"
        }
    },
    "dev": {
        "awscloudformation": {
            "AuthRoleName": "amplify-reasst-dev-100802-authRole",
            "UnauthRoleArn": "arn:aws:iam::206568594760:role/amplify-reasst-dev-100802-unauthRole",
            "AuthRoleArn": "arn:aws:iam::206568594760:role/amplify-reasst-dev-100802-authRole",
            "Region": "us-east-1",
            "DeploymentBucketName": "amplify-reasst-dev-100802-deployment",
            "UnauthRoleName": "amplify-reasst-dev-100802-unauthRole",
            "StackName": "amplify-reasst-dev-100802",
            "StackId": "arn:aws:cloudformation:us-east-1:206568594760:stack/amplify-reasst-dev-100802/2414d0c0-cc2d-11ea-a432-0ea20f614b35",
            "AmplifyAppId": "d2zclcmrqt5a4t"
        },
        "categories": {
            "function": {
                "reasstd0385d56d0385d56CustomMessage": {
                    "REDIRECTURL": "https://app.reasst.com/login",
                    "EMAILSUBJECT": "Verify your account - REAsst",
                    "EMAILMESSAGE": "Please verify your account with the included link."
                }
            },
            "auth": {
                "reasstd0385d56d0385d56": {}
            }
        }
    }
}